怎样用HOMER算出的P-value画出CNS级别的泡泡图？
…
y <- map_df(seq(1, length(x), 2), function(i) {
    res <- x[,i:(i+1)]
    names(res) <- c("motif", "pvalue")
    res[[2]] %<>% as.numeric
    res$type = names(x)[i]
    res <- res[!is.na(res$motif),]
    res
})

y$type = factor(y$type, levels=names(x)[seq(1, length(x), 2)])

实验条件存在type这个列里，设置了level，这样按照原本excel里的顺序来。现在的数据长这样子：

> y
# A tibble: 97 x 3
   motif                                                           pvalue type
   <chr>                                                            <dbl> <fct>
 1 AP-2gamma(AP2)/MCF7-TFAP2C-ChIP-Seq(GSE21234)/Homer          1.00e+  0 2cel…
 2 CTCF(Zf)/CD4+-CTCF-ChIP-Seq(Barski_et_al.)/Homer             1.00e-187 2cel…
 3 CTCF-SatelliteElement(Zf?)/CD4+-CTCF-ChIP-Seq(Barski_et_al.… 1.00e- 10 2cel…
 4 FOXA1(Forkhead)/LNCAP-FOXA1-ChIP-Seq(GSE27824)/Homer         1.00e- 52 2cel…
 5 FOXA1(Forkhead)/MCF7-FOXA1-ChIP-Seq(GSE26831)/Homer          1.00e- 62 2cel…
 6 FOXA1:AR(Forkhead,NR)/LNCAP-AR-ChIP-Seq(GSE27824)/Homer      1.00e- 52 2cel…
 7 GABPA(ETS)/Jurkat-GABPa-ChIP-Seq(GSE17954)/Homer             1.00e+  0 2cel…
 8 GATA3(Zf),DR4/iTreg-Gata3-ChIP-Seq(GSE20898)/Homer           1.00e+  0 2cel…
 9 GATA3(Zf),DR8/iTreg-Gata3-ChIP-Seq(GSE20898)/Homer           1.00e- 13 2cel…
10 GATA3(Zf)/iTreg-Gata3-ChIP-Seq(GSE20898)/Homer               1.00e+  0 2cel…
# ... with 87 more rows
…
