你那一串差异基因，到底是在哪个组织、哪种细胞中富集？
…
数据是提供下载的，我就不下载了，直接读入R，此处只演示一下使用人的数据。

cell_markers <- vroom::vroom('http://bio-bigdata.hrbmu.edu.cn/CellMarker/download/Human_cell_markers.txt') %>%
   tidyr::unite("cellMarker", tissueType, cancerType, cellName, sep=", ") %>% 
   dplyr::select(cellMarker, geneID) %>%
   dplyr::mutate(geneID = strsplit(geneID, ', '))

整理之后，数据长这样子：

> cell_markers
## # A tibble: 2,868 x 2
##    cellMarker                                       geneID  
##    <chr>                                            <list>  
##  1 Kidney, Normal, Proximal tubular cell            <chr [1…
##  2 Liver, Normal, Ito cell (hepatic stellate cell)  <chr [1…
##  3 Endometrium, Normal, Trophoblast cell            <chr [1…
##  4 Germ, Normal, Primordial germ cell               <chr [1…
##  5 Corneal epithelium, Normal, Epithelial cell      <chr [1…
##  6 Placenta, Normal, Cytotrophoblast                <chr [1…
##  7 Periosteum, Normal, Periosteum-derived progenit… <chr [4…
##  8 Amniotic membrane, Normal, Amnion epithelial ce… <chr [2…
##  9 Primitive streak, Normal, Primitive streak cell  <chr [2…
## 10 Adipose tissue, Normal, Stromal vascular fracti… <chr [1…
## # … with 2,858 more rows
…
