用散点可视化一个矩阵
…
画图实战

require(tibble)

dd <- as_data_frame(d)
dd$seq1 <- nm

require(tidyr)
td <- gather(dd,seq2, dist, -seq1)

这里宽变长，这种tidy格式适合于我们用ggplot2可视化。

> td
# A tibble: 5,776 x 3
   seq1                          seq2                             dist
   <fct>                         <chr>                           <dbl>
 1 A/Swine/Binh_Duong/03_08/2010 A/Swine/Binh_Duong/03_08/2010 0.
 2 A/Swine/Binh_Duong/03_10/2010 A/Swine/Binh_Duong/03_08/2010 0.00178
 3 A/Swine/HK/2503/2011          A/Swine/Binh_Duong/03_08/2010 0.0267
 4 A/Swine/HK_NS2439/2011        A/Swine/Binh_Duong/03_08/2010 0.0267
 5 A/Swine/GX_NS2783/2010        A/Swine/Binh_Duong/03_08/2010 0.0249
 6 A/Swine/GD/3767/2011          A/Swine/Binh_Duong/03_08/2010 0.0320
 7 A/Swine/GX/2242/2011          A/Swine/Binh_Duong/03_08/2010 0.0338
 8 A/Swine/GX/2803/2011          A/Swine/Binh_Duong/03_08/2010 0.0249
 9 A/Swine/GX_NS3106/2011        A/Swine/Binh_Duong/03_08/2010 0.0285
10 A/Swine/GX_NS3108/2011        A/Swine/Binh_Duong/03_08/2010 0.0249
# ... with 5,766 more rows
…
